0 0.0825 0.5629695 0.15 0.06766899999999998
0 0.6378124999999999 0.6593045 0.176875 0.27537500000000004
0 0.6112500000000001 0.35573299999999997 0.04500000000000004 0.027256000000000002
0 0.9671875000000001 0.5272555 0.06437499999999996 0.24248099999999995
