0 0.080625 0.49529200000000007 0.16125 0.303202
0 0.11000000000000001 0.3474575 0.12250000000000001 0.09604499999999999
0 0.43718749999999995 0.47598850000000004 0.231875 0.279661
0 0.81375 0.4293785 0.37124999999999997 0.314501
