0 0.0834895 0.4661975 0.073171 0.117371
0 0.39368349999999996 0.5131455 0.05816099999999996 0.18873300000000004
0 0.5409630000000001 0.471831 0.04502799999999996 0.12112600000000001
0 0.732958 0.45680750000000003 0.05503400000000003 0.14366100000000004
0 0.8889929999999999 0.503756 0.18949399999999994 0.09671399999999997
