0 0.09375 0.5536885 0.035 0.36041100000000004
0 0.2553125 0.5966385 0.044375000000000026 0.2819789999999999
0 0.434375 0.5466854999999999 0.05249999999999999 0.40429499999999996
0 0.625625 0.4444445 0.05499999999999994 0.364145
0 0.675 0.7324930000000001 0.06375000000000008 0.44537799999999994
