0 0.0896875 0.36624999999999996 0.179375 0.07583400000000001
0 0.23593750000000002 0.3645835 0.163125 0.07916699999999999
0 0.38968749999999996 0.369167 0.16312500000000002 0.09500000000000003
0 0.5971875 0.36291700000000005 0.14312499999999995 0.10749999999999998
