0 0.0509375 0.48494800000000005 0.101875 0.11571000000000004
0 0.186875 0.4797745 0.10500000000000001 0.05268099999999998
0 0.3803125 0.45484500000000005 0.08437499999999998 0.11006600000000005
0 0.505 0.42474100000000004 0.09375 0.053622
0 0.6190625 0.458608 0.08812500000000001 0.08748800000000001
0 0.7115625 0.44873 0.08562500000000006 0.071496
