0 0.2177505 0.3492645 0.101135 0.041176999999999964
0 0.41486049999999997 0.207353 0.301341 0.06323599999999999
0 0.43085650000000003 0.232353 0.16615100000000005 0.14117600000000002
0 0.47265199999999996 0.252941 0.033024 0.08529400000000001
0 0.5531474999999999 0.3334555 0.07017499999999999 0.034559000000000006
